- plutoTemplate
…
X_full = CSV.read("data//home-data-for-ml-course//train.csv", DataFrame);

X_test_full = CSV.read("data//home-data-for-ml-course//test.csv", DataFrame);

y = X_full.SalePrice;

features = [:LotArea, :YearBuilt, Symbol("1stFlrSF"), Symbol("2ndFlrSF"), :FullBath, :BedroomAbvGr, :TotRmsAbvGrd];

X = copy(X_full[:,features]);

X_test = copy(X_test_full[:,features]);

(X_train, X_valid), (y_train, y_valid) = partition((X, y), 0.8, multi=true)

((1168×7 DataFrame
  Row │ LotArea  YearBuilt  1stFlrSF  2ndFlrSF  FullBath  BedroomAbvGr  TotRmsAbvGrd
      │ Int64    Int64      Int64     Int64     Int64     Int64         Int64
──────┼──────────────────────────────────────────────────────────────────────────────
    1 │    8450       2003       856       854         2             3             8
    2 │    9600       1976      1262         0         2             3             6
    3 │   11250       2001       920       866         2             3             6
    4 │    9550       1915       961       756         1             3             7
    5 │   14260       2000      1145      1053         2             4             9
  ⋮   │    ⋮         ⋮         ⋮         ⋮         ⋮           ⋮             ⋮
 1165 │   16157       1978      1432         0         1             2             5
 1166 │    9541       2009      1502         0         2             3             7
 1167 │   10475       2008      1694         0         2             3             7
 1168 │   10852       2000       959       712         2             3             7
                                                                    1159 rows omitted, 292×7 DataFrame
…
